EESchema Schematic File Version 2
LIBS:kicad-spice
LIBS:project-cache
EELAYER 25 0
EELAYER END
$Descr A4 11693 8268
encoding utf-8
Sheet 1 1
Title ""
Date ""
Rev ""
Comp ""
Comment1 ""
Comment2 ""
Comment3 ""
Comment4 ""
$EndDescr
$Comp
L V V2
U 1 1 5780A885
P 5800 6300
F 0 "V2" H 5675 6500 60  0000 C CNN
F 1 "DC 0V PWL 0mS 0V 2mS 0V 2.01mS .1V 3.99mS .1V 4mS 0V 6mS 0V 6.01mS -.1V 7.99mS -.1V 8mS 0V 10mS 0V 10.01mS .2V 11.99mS .2V 12.01mS -.2V 13.99mS -.2V 14mS -.1V 14.01mS -.3V 15.99mS -.3V 16mS 0V" V 6025 6300 60  0000 C CNN
F 2 "" H 5475 6300 60  0000 C CNN
F 3 "" H 5475 6300 60  0000 C CNN
	1    5800 6300
	0    -1   -1   0   
$EndComp
$Comp
L 0 #GND01
U 1 1 5780A933
P 2800 3550
F 0 "#GND01" H 2800 3450 40  0001 C CNN
F 1 "0" H 2800 3480 40  0000 C CNN
F 2 "" H 2800 3550 60  0000 C CNN
F 3 "" H 2800 3550 60  0000 C CNN
	1    2800 3550
	1    0    0    -1  
$EndComp
Text GLabel 5500 6300 0    60   Input ~ 0
PI
Wire Wire Line
	5600 6300 5500 6300
Wire Wire Line
	6100 6300 6000 6300
Text Notes 6850 5200 0    60   ~ 0
+pspice\n* \n.control\n  option nopage\n  tran 1uS 18mS 0mS\n  set gnuplot_terminal=png\n  gnuplot project\n  + v1#branch*-10\n  + v(pi)\n  + v(po)\n.endc
$Comp
L DV XD1
U 1 1 57CE5104
P 4900 3300
F 0 "XD1" H 4900 3425 60  0000 C CNN
F 1 "TL431ED" V 4750 3050 60  0000 C CNN
F 2 "" H 4900 3300 60  0000 C CNN
F 3 "" H 4900 3300 60  0000 C CNN
	1    4900 3300
	0    -1   -1   0   
$EndComp
$Comp
L R R4
U 1 1 57CE51DA
P 5700 3700
F 0 "R4" H 5700 3800 60  0000 C CNN
F 1 "47K" H 5700 3600 60  0000 C CNN
F 2 "" H 5700 3700 60  0000 C CNN
F 3 "" H 5700 3700 60  0000 C CNN
	1    5700 3700
	0    -1   1    0   
$EndComp
$Comp
L R R2
U 1 1 57CE527B
P 5700 2900
F 0 "R2" H 5700 3000 60  0000 C CNN
F 1 "10K" H 5700 2800 60  0000 C CNN
F 2 "" H 5700 2900 60  0000 C CNN
F 3 "" H 5700 2900 60  0000 C CNN
	1    5700 2900
	0    -1   1    0   
$EndComp
Wire Wire Line
	5700 3100 5700 3500
Wire Wire Line
	5700 2700 5700 2500
Text GLabel 5700 2500 1    60   Input ~ 0
PO
Wire Wire Line
	5700 3900 5700 4100
$Comp
L 0 #GND02
U 1 1 57CE5305
P 5700 4100
F 0 "#GND02" H 5700 4000 40  0001 C CNN
F 1 "0" H 5700 4030 40  0000 C CNN
F 2 "" H 5700 4100 60  0000 C CNN
F 3 "" H 5700 4100 60  0000 C CNN
	1    5700 4100
	1    0    0    -1  
$EndComp
Wire Wire Line
	4900 3400 4900 4100
$Comp
L 0 #GND03
U 1 1 57CE534C
P 4900 4100
F 0 "#GND03" H 4900 4000 40  0001 C CNN
F 1 "0" H 4900 4030 40  0000 C CNN
F 2 "" H 4900 4100 60  0000 C CNN
F 3 "" H 4900 4100 60  0000 C CNN
	1    4900 4100
	1    0    0    -1  
$EndComp
Wire Wire Line
	4900 2500 4900 3200
Text GLabel 4900 2500 1    60   Input ~ 0
PO
$Comp
L R R1
U 1 1 57CE5385
P 4500 3000
F 0 "R1" H 4500 3100 60  0000 C CNN
F 1 "22" H 4500 2900 60  0000 C CNN
F 2 "" H 4500 3000 60  0000 C CNN
F 3 "" H 4500 3000 60  0000 C CNN
	1    4500 3000
	-1   0    0    -1  
$EndComp
Wire Wire Line
	4300 3000 4100 3000
Text GLabel 4100 3000 0    60   Input ~ 0
PI
Wire Wire Line
	4700 3000 4900 3000
Connection ~ 4900 3000
Text Notes 4250 5150 0    60   ~ 0
/* maxima equations */\nEQ[V[out]]: V[out]=(1+R[1]/R[2])*V[ref];\nEQ[R[2]]: solve(EQ[V[out]], R[2])[1];\nPR[tl431]: V[ref]=2.5$\nPR[R[1]]: R[1]=10e3$\nPR[V[out]]: V[out]=3.0$\nEQ[R[2]], PR[tl431], PR[R[1]], PR[V[out]];\nPR[R[2]]: R[2]=47e3$\nEQ[V[out]], PR[tl431], PR[R[1]], PR[R[2]];
$Comp
L R R3
U 1 1 57CE554E
P 7200 3300
F 0 "R3" H 7200 3400 60  0000 C CNN
F 1 "300" H 7200 3200 60  0000 C CNN
F 2 "" H 7200 3300 60  0000 C CNN
F 3 "" H 7200 3300 60  0000 C CNN
	1    7200 3300
	0    -1   1    0   
$EndComp
Wire Wire Line
	7200 3100 7200 2500
Wire Wire Line
	7200 3500 7200 4100
Text GLabel 7200 2500 1    60   Input ~ 0
PO
$Comp
L 0 #GND04
U 1 1 57CE560C
P 7200 4100
F 0 "#GND04" H 7200 4000 40  0001 C CNN
F 1 "0" H 7200 4030 40  0000 C CNN
F 2 "" H 7200 4100 60  0000 C CNN
F 3 "" H 7200 4100 60  0000 C CNN
	1    7200 4100
	1    0    0    -1  
$EndComp
Text Notes 4250 1950 0    60   ~ 0
-pspice\n* \n.include tl431ed.lib
$Comp
L C C1
U 1 1 57CE58E7
P 6200 3300
F 0 "C1" H 6200 3425 60  0000 C CNN
F 1 "10n" H 6200 3175 60  0000 C CNN
F 2 "" H 5550 3850 60  0000 C CNN
F 3 "" H 5550 3850 60  0000 C CNN
	1    6200 3300
	0    -1   -1   0   
$EndComp
Wire Wire Line
	6200 3200 6200 2500
Text GLabel 6200 2500 1    60   Input ~ 0
PO
Wire Wire Line
	6200 3400 6200 4100
$Comp
L 0 #GND05
U 1 1 57CE59DE
P 6200 4100
F 0 "#GND05" H 6200 4000 40  0001 C CNN
F 1 "0" H 6200 4030 40  0000 C CNN
F 2 "" H 6200 4100 60  0000 C CNN
F 3 "" H 6200 4100 60  0000 C CNN
	1    6200 4100
	1    0    0    -1  
$EndComp
Wire Wire Line
	5000 3300 5700 3300
Connection ~ 5700 3300
Text Notes 8050 2950 0    60   ~ 0
-pspice\n* \n.SUBCKT TL431 7 6 11\nV1 1 6 2.495\nR1 6 2 15.6\nC1 2 6 .5U\nR2 2 3 100\nC2 3 4 .08U\nR3 4 6 10\nG2 6 8 3 6 1.73\nD1 5 8 DC\nD2 7 8 DC\nV4 5 6 2\nG1 6 2 1 11 0.11\n.MODEL DC D \n+IS=13.5N RS=25M N=1.59 \n+ CJO=45P VJ=.75 M=.302 \n+ TT=50.4N BV=34V IBV=1MA\n.ENDS\n********
Text Notes 8400 5100 0    60   ~ 0
-pspice-\n* \n.SUBCKT TL431 7 6 11\n* A K FDBK\n.MODEL DCLAMP D (IS=13.5N RS=25M N=1.59\n+ CJO=45P VJ=.75 M=.302 TT=50.4N BV=34 IBV=1M)\nV1 1 6 2.495\nR1 6 2 15.6\nC1 2 6 .5U\nR2 2 3 100\nC2 3 4 .08U\nR3 4 6 10\nG2 6 8 3 6 1.73\nD1 5 8 DCLAMP\nD2 7 8 DCLAMP\nV4 5 6 2\nG1 6 2 1 11 0.11\n.ENDS
$Comp
L C C2
U 1 1 57CE7665
P 6700 3300
F 0 "C2" H 6700 3425 60  0000 C CNN
F 1 "10u" H 6700 3175 60  0000 C CNN
F 2 "" H 6050 3850 60  0000 C CNN
F 3 "" H 6050 3850 60  0000 C CNN
	1    6700 3300
	0    -1   -1   0   
$EndComp
Wire Wire Line
	6700 3200 6700 2500
Text GLabel 6700 2500 1    60   Input ~ 0
PO
Wire Wire Line
	6700 3400 6700 4100
$Comp
L 0 #GND06
U 1 1 57CE766E
P 6700 4100
F 0 "#GND06" H 6700 4000 40  0001 C CNN
F 1 "0" H 6700 4030 40  0000 C CNN
F 2 "" H 6700 4100 60  0000 C CNN
F 3 "" H 6700 4100 60  0000 C CNN
	1    6700 4100
	1    0    0    -1  
$EndComp
$Comp
L V V1
U 1 1 57CE7A31
P 2800 3250
F 0 "V1" H 2675 3450 60  0000 C CNN
F 1 "DC 3.5V" V 3025 3250 60  0000 C CNN
F 2 "" H 2475 3250 60  0000 C CNN
F 3 "" H 2475 3250 60  0000 C CNN
	1    2800 3250
	1    0    0    -1  
$EndComp
Text GLabel 6100 6300 2    60   Input ~ 0
PP
Wire Wire Line
	2800 3550 2800 3450
Wire Wire Line
	2800 3050 2800 2950
Text GLabel 2800 2950 1    60   Input ~ 0
PP
Text Notes 7550 3700 1    60   ~ 0
3V 10mA Typical Load
$EndSCHEMATC
