EESchema Schematic File Version 2
LIBS:project-rescue
LIBS:power
LIBS:device
LIBS:transistors
LIBS:conn
LIBS:linear
LIBS:regul
LIBS:74xx
LIBS:cmos4000
LIBS:adc-dac
LIBS:memory
LIBS:xilinx
LIBS:microcontrollers
LIBS:dsp
LIBS:microchip
LIBS:analog_switches
LIBS:motorola
LIBS:texas
LIBS:intel
LIBS:audio
LIBS:interface
LIBS:digital-audio
LIBS:philips
LIBS:display
LIBS:cypress
LIBS:siliconi
LIBS:opto
LIBS:atmel
LIBS:contrib
LIBS:valves
LIBS:esp-12
LIBS:pir
LIBS:stm32
LIBS:iface
LIBS:tl431
LIBS:addon
LIBS:project-cache
EELAYER 25 0
EELAYER END
$Descr A4 11693 8268
encoding utf-8
Sheet 1 2
Title "Light Control"
Date ""
Rev "0.1.4"
Comp "Illumium.Org"
Comment1 ""
Comment2 "K."
Comment3 ""
Comment4 ""
$EndDescr
$Comp
L GND #PWR01
U 1 1 55D2CB01
P 10700 2200
F 0 "#PWR01" H 10700 1950 60  0001 C CNN
F 1 "GND" H 10700 2050 60  0000 C CNN
F 2 "" H 10700 2200 60  0000 C CNN
F 3 "" H 10700 2200 60  0000 C CNN
	1    10700 2200
	1    0    0    -1  
$EndComp
$Comp
L +3V3 #PWR02
U 1 1 55D2CB1F
P 10700 1800
F 0 "#PWR02" H 10700 1650 60  0001 C CNN
F 1 "+3V3" V 10700 2050 60  0000 C CNN
F 2 "" H 10700 1800 60  0000 C CNN
F 3 "" H 10700 1800 60  0000 C CNN
	1    10700 1800
	0    1    1    0   
$EndComp
Text GLabel 6100 1100 0    47   Input ~ 0
RS485_DI
Text GLabel 6100 1200 0    47   Input ~ 0
RS485_RO
Text GLabel 10700 900  2    47   Input ~ 0
~LIGHT_CTL
$Comp
L Photores R602
U 1 1 55D3C029
P 1200 1850
F 0 "R602" V 1280 1850 50  0000 C CNN
F 1 "1M" V 1100 1850 50  0000 C TNN
F 2 "Local:PHOTORES_5" V 1130 1850 30  0001 C CNN
F 3 "" H 1200 1850 30  0000 C CNN
	1    1200 1850
	-1   0    0    -1  
$EndComp
Text GLabel 1000 1400 1    47   Input ~ 0
PHOTO_SIG
$Comp
L R R601
U 1 1 55D3C8F0
P 1200 1250
F 0 "R601" V 1280 1250 50  0000 C CNN
F 1 "10K" V 1207 1251 50  0000 C CNN
F 2 "Local:R_0603" V 1130 1250 30  0001 C CNN
F 3 "" H 1200 1250 30  0000 C CNN
	1    1200 1250
	-1   0    0    1   
$EndComp
$Comp
L GND #PWR03
U 1 1 55D3DD3D
P 1200 2300
F 0 "#PWR03" H 1200 2050 60  0001 C CNN
F 1 "GND" H 1200 2150 60  0000 C CNN
F 2 "" H 1200 2300 60  0000 C CNN
F 3 "" H 1200 2300 60  0000 C CNN
	1    1200 2300
	1    0    0    -1  
$EndComp
Text Notes 1300 1150 0    60   ~ 0
PHOTO\nSENSOR
Text Notes -700 1950 0    39   ~ 0
* RESISTIVE SENSOR (ngspice)\n\nV1 VDD GND DC(3.3)\n* R1 - serial with sensor\nR1 VDD OUT 22e3\n* R2 - parallel with sensor\nR2 OUT GND 10e3\n* Rt - thermistor resistance\n*Rt OUT GND 180e3\n*Rt OUT GND 2.4e3\n* Rp - photo-resistor resistance\n*Rp OUT GND 150\n*Rp OUT GND 500e3\n\n.control\n  options nopage\n  tran 1mS 2mS 1mS\n.endc\n\n.end\n
Text GLabel 10700 1400 2    47   Input ~ 0
~RESET
Text Notes -1150 2750 0    39   ~ 0
Q1: Rlo = 1 / (1/Rpp + 1/Rph)$\nQ2: Vout = Vin * Rlo / (Rhi + Rlo)$\nQ3: Q2, Q1 $\nQ4: solve(Q3, Rph)$\nQ5: L = edg / Rph $\nQ6: Q5, Q4 $\nR1: [Vin=1024, Rhi=22e3, Rpp=10e3, edg=500];\nQ6, R1, Vout=10;\nQ6, R1, Vout=1010;\nQ6, R1, Vout=870;\nQ6, R1, Vout=420;
Text Notes -1550 3550 0    39   ~ 0
Q1: Rlo = 1 / (1/Rpp + 1/Rph)$\nQ2: Vout = Vin * Rlo / (Rhi + Rlo)$\nQ3: Q2, Q1 $\nQ4: solve(Q3, Rph);\nQ5: L = edg / Rph $\nQ6: Q5, Q4;\nR1: [Vin=1024*3.3/1.0, Rhi=22e3, Rpp=10e3, edg=1000000];\nQ6, R1, Vout=10;\nQ6, R1, Vout=420;\nQ6, R1, Vout=870;\nQ6, R1, Vout=1010;
$Comp
L D203B U401
U 1 1 56DEF9CE
P 1000 5050
F 0 "U401" H 1000 5350 60  0000 C CNN
F 1 "D203B" H 1000 4750 60  0000 C CNN
F 2 "Local:D203B" H 1050 5025 60  0001 C CNN
F 3 "" H 1050 5025 60  0000 C CNN
	1    1000 5050
	1    0    0    -1  
$EndComp
$Comp
L GND #PWR04
U 1 1 56DF0B66
P 2000 5650
F 0 "#PWR04" H 2000 5400 60  0001 C CNN
F 1 "GND" H 2000 5500 60  0000 C CNN
F 2 "" H 2000 5650 60  0000 C CNN
F 3 "" H 2000 5650 60  0000 C CNN
	1    2000 5650
	1    0    0    -1  
$EndComp
$Comp
L C C403
U 1 1 56DF1082
P 1700 5300
F 0 "C403" H 1725 5400 50  0000 L CNN
F 1 "100n" H 1700 5200 50  0000 L CNN
F 2 "Local:C_0603" H 1738 5150 30  0001 C CNN
F 3 "" H 1700 5300 60  0000 C CNN
	1    1700 5300
	1    0    0    -1  
$EndComp
$Comp
L R R404
U 1 1 56DF11B5
P 2000 5300
F 0 "R404" V 2100 5300 50  0000 C CNN
F 1 "47K" V 2007 5301 50  0000 C CNN
F 2 "Local:R_0603" V 1930 5300 30  0001 C CNN
F 3 "" H 2000 5300 30  0000 C CNN
	1    2000 5300
	1    0    0    1   
$EndComp
$Comp
L GND #PWR05
U 1 1 56DF25D9
P 1500 5300
F 0 "#PWR05" H 1500 5050 60  0001 C CNN
F 1 "GND" H 1500 5150 60  0000 C CNN
F 2 "" H 1500 5300 60  0000 C CNN
F 3 "" H 1500 5300 60  0000 C CNN
	1    1500 5300
	1    0    0    -1  
$EndComp
$Comp
L GND #PWR06
U 1 1 56DF32FE
P 3300 5550
F 0 "#PWR06" H 3300 5300 60  0001 C CNN
F 1 "GND" H 3300 5400 60  0000 C CNN
F 2 "" H 3300 5550 60  0000 C CNN
F 3 "" H 3300 5550 60  0000 C CNN
	1    3300 5550
	1    0    0    -1  
$EndComp
$Comp
L GND #PWR07
U 1 1 56DF4E93
P 5000 4850
F 0 "#PWR07" H 5000 4600 60  0001 C CNN
F 1 "GND" H 5000 4700 60  0000 C CNN
F 2 "" H 5000 4850 60  0000 C CNN
F 3 "" H 5000 4850 60  0000 C CNN
	1    5000 4850
	-1   0    0    1   
$EndComp
$Comp
L R R407
U 1 1 56DF5FFD
P 3000 5500
F 0 "R407" V 3100 5500 50  0000 C CNN
F 1 "47K" V 3007 5501 50  0000 C CNN
F 2 "Local:R_0603" V 2930 5500 30  0001 C CNN
F 3 "" H 3000 5500 30  0000 C CNN
	1    3000 5500
	-1   0    0    1   
$EndComp
$Comp
L CP C406
U 1 1 56DF61C2
P 3000 5900
F 0 "C406" H 3025 6000 50  0000 L CNN
F 1 "47u" H 3025 5800 50  0000 L CNN
F 2 "Local:C_Radial_D5_L11_P2.5" H 3038 5750 30  0001 C CNN
F 3 "" H 3000 5900 60  0000 C CNN
	1    3000 5900
	-1   0    0    -1  
$EndComp
$Comp
L GND #PWR08
U 1 1 56DF7DA6
P 3000 6150
F 0 "#PWR08" H 3000 5900 60  0001 C CNN
F 1 "GND" H 3000 6000 60  0000 C CNN
F 2 "" H 3000 6150 60  0000 C CNN
F 3 "" H 3000 6150 60  0000 C CNN
	1    3000 6150
	1    0    0    -1  
$EndComp
Text Notes 800  4500 0    60   ~ 0
PASSIVE \nINFRARED\nSENSOR
$Comp
L THERMISTOR R604
U 1 1 56E0BA80
P 2400 1850
F 0 "R604" V 2480 1850 50  0000 C CNN
F 1 "100K" V 2250 1850 50  0000 C TNN
F 2 "Local:PHOTORES_5" V 2330 1850 30  0001 C CNN
F 3 "" H 2400 1850 30  0000 C CNN
	1    2400 1850
	-1   0    0    -1  
$EndComp
Text GLabel 2200 1400 1    47   Input ~ 0
THERMO_SIG
$Comp
L R R603
U 1 1 56E0BA87
P 2400 1250
F 0 "R603" V 2480 1250 50  0000 C CNN
F 1 "22K" V 2407 1251 50  0000 C CNN
F 2 "Local:R_0603" V 2330 1250 30  0001 C CNN
F 3 "" H 2400 1250 30  0000 C CNN
	1    2400 1250
	-1   0    0    1   
$EndComp
$Comp
L GND #PWR09
U 1 1 56E0BA93
P 2400 2300
F 0 "#PWR09" H 2400 2050 60  0001 C CNN
F 1 "GND" H 2400 2150 60  0000 C CNN
F 2 "" H 2400 2300 60  0000 C CNN
F 3 "" H 2400 2300 60  0000 C CNN
	1    2400 2300
	1    0    0    -1  
$EndComp
Text Notes 2500 1150 0    60   ~ 0
THERMO\nSENSOR
Text Notes 600  3500 0    39   ~ 0
/* maxima */\nQ1: Vp / Vs = (Rh + Rl) / Rl;\nQ2: Q1, Vs = Vs[0], Rl = Rl[0];\nQ3: solve(Q2, Vp);\nQ4: Q1, Q3;\nQ5: [Q1, Q4];\nP1: [Vp=3.3]$\n/* thermistor 100K */\nPt: [Rl[0]=180e3, Vs[0]=3.0, Rl=2.4e3]$\nQt: Q5, P1, Pt$\nOt: solve(Qt, [Rh, Vs]), numer;\n/* LDR photoresistor */\nPr: [Rl[0]=500e3, Vs[0]=3.2, Rl=150]$\nQr: Q5, P1, Pr$\nOr: solve(Qr, [Rh, Vs]), numer;
Text Notes 2100 3750 0    39   ~ 0
/* maxima (correct equations) */\nQ1: Vp / Vs = (Rh + Rl) / Rl$\nQ2[0]: Q1, Rl = Rl[0], Vs = Vs[0]$\nQ2[1]: Q1, Rl = Rl[1], Vs = Vp - Vs[0]$\nQ3[0]: solve(Q2[0], Vp)$\nQ3[1]: solve(Q2[1], Vp)$\nQ4: Q3[0], Q3[1]$\nQ5: [Q2[0], Q4[1]];\nP1: [Vp=3.3]$\n/* thermistor 100K */\nPt: [Rl[0]=2.4e3, Rl[1]=180e3]$\nQt: Q5, P1, Pt$\nOt: solve(Qt, [Rh, Vs[0]]), numer$\nOt[2];\n/* LDR photoresistor */\nPr: [Rl[0]=150, Rl[1]=500e3]$\nQr: Q5, P1, Pr$\nOr: solve(Qr, [Rh, Vs[0]]), numer$\nOr[2];
$Comp
L C C601
U 1 1 56E41A7B
P 1600 1850
F 0 "C601" H 1625 1950 50  0000 L CNN
F 1 "10n" H 1600 1750 50  0000 L CNN
F 2 "Local:C_0603" H 1638 1700 30  0001 C CNN
F 3 "" H 1600 1850 60  0000 C CNN
	1    1600 1850
	-1   0    0    -1  
$EndComp
$Comp
L C C602
U 1 1 56E420FA
P 2800 1850
F 0 "C602" H 2825 1950 50  0000 L CNN
F 1 "10n" H 2800 1750 50  0000 L CNN
F 2 "Local:C_0603" H 2838 1700 30  0001 C CNN
F 3 "" H 2800 1850 60  0000 C CNN
	1    2800 1850
	-1   0    0    -1  
$EndComp
$Comp
L GND #PWR010
U 1 1 56E42D84
P 4400 5950
F 0 "#PWR010" H 4400 5700 60  0001 C CNN
F 1 "GND" H 4400 5800 60  0000 C CNN
F 2 "" H 4400 5950 60  0000 C CNN
F 3 "" H 4400 5950 60  0000 C CNN
	1    4400 5950
	1    0    0    -1  
$EndComp
$Comp
L LM358N U402
U 1 1 56E660FB
P 3400 5150
F 0 "U402" H 3350 5350 60  0000 L CNN
F 1 "LM258N" H 3350 4900 60  0000 L CNN
F 2 "Local:SOIC-8_3.9x4.9mm_Pitch1.27mm" H 3400 5150 60  0001 C CNN
F 3 "" H 3400 5150 60  0000 C CNN
	1    3400 5150
	1    0    0    -1  
$EndComp
$Comp
L LM358N U402
U 2 1 56E6706B
P 5100 5250
F 0 "U402" H 5050 5450 60  0000 L CNN
F 1 "LM258N" H 5050 5000 60  0000 L CNN
F 2 "Local:SOIC-8_3.9x4.9mm_Pitch1.27mm" H 5100 5250 60  0001 C CNN
F 3 "" H 5100 5250 60  0000 C CNN
	2    5100 5250
	1    0    0    1   
$EndComp
Text GLabel 3300 4750 1    47   Input ~ 0
+5VA
Text GLabel 5000 5650 3    47   Input ~ 0
+5VA
Text GLabel 2700 4150 2    47   Input ~ 0
+5VA
$Comp
L C C404
U 1 1 56E6FFCD
P 2750 5250
F 0 "C404" H 2775 5350 50  0000 L CNN
F 1 "10n" H 2750 5150 50  0000 L CNN
F 2 "Local:C_0603" H 2788 5100 30  0001 C CNN
F 3 "" H 2750 5250 60  0000 C CNN
	1    2750 5250
	0    -1   1    0   
$EndComp
$Comp
L R R405
U 1 1 56E701F5
P 2250 5050
F 0 "R405" V 2350 5050 50  0000 C CNN
F 1 "18K" V 2257 5051 50  0000 C CNN
F 2 "Local:R_0603" V 2180 5050 30  0001 C CNN
F 3 "" H 2250 5050 30  0000 C CNN
	1    2250 5050
	0    -1   -1   0   
$EndComp
$Comp
L R R403
U 1 1 56E7128F
P 2800 4600
F 0 "R403" V 2880 4600 50  0000 C CNN
F 1 "1M" V 2807 4601 50  0000 C CNN
F 2 "Local:R_0603" V 2730 4600 30  0001 C CNN
F 3 "" H 2800 4600 30  0000 C CNN
	1    2800 4600
	-1   0    0    1   
$EndComp
$Comp
L C C405
U 1 1 56E714F1
P 3000 4600
F 0 "C405" H 3025 4700 50  0000 L CNN
F 1 "10n" H 3000 4500 50  0000 L CNN
F 2 "Local:C_0603" H 3038 4450 30  0001 C CNN
F 3 "" H 3000 4600 60  0000 C CNN
	1    3000 4600
	1    0    0    -1  
$EndComp
$Comp
L CP C407
U 1 1 56E72B85
P 4050 5150
F 0 "C407" H 4075 5250 50  0000 L CNN
F 1 "10u" H 4075 5050 50  0000 L CNN
F 2 "Local:C_0805" H 4088 5000 30  0001 C CNN
F 3 "" H 4050 5150 60  0000 C CNN
	1    4050 5150
	0    -1   -1   0   
$EndComp
$Comp
L R R409
U 1 1 56E72E8A
P 4450 5150
F 0 "R409" V 4550 5150 50  0000 C CNN
F 1 "15K" V 4457 5151 50  0000 C CNN
F 2 "Local:R_0603" V 4380 5150 30  0001 C CNN
F 3 "" H 4450 5150 30  0000 C CNN
	1    4450 5150
	0    -1   -1   0   
$EndComp
$Comp
L CP C409
U 1 1 56E737D0
P 4400 5600
F 0 "C409" H 4425 5700 50  0000 L CNN
F 1 "10u" H 4425 5500 50  0000 L CNN
F 2 "Local:C_0805" H 4438 5450 30  0001 C CNN
F 3 "" H 4400 5600 60  0000 C CNN
	1    4400 5600
	-1   0    0    -1  
$EndComp
$Comp
L C C408
U 1 1 56E73D33
P 4100 5600
F 0 "C408" H 4125 5700 50  0000 L CNN
F 1 "10n" H 4100 5500 50  0000 L CNN
F 2 "Local:C_0603" H 4138 5450 30  0001 C CNN
F 3 "" H 4100 5600 60  0000 C CNN
	1    4100 5600
	-1   0    0    -1  
$EndComp
$Comp
L R R411
U 1 1 56E73E8D
P 4700 5600
F 0 "R411" V 4800 5600 50  0000 C CNN
F 1 "100K" V 4707 5601 50  0000 C CNN
F 2 "Local:R_0603" V 4630 5600 30  0001 C CNN
F 3 "" H 4700 5600 30  0000 C CNN
	1    4700 5600
	-1   0    0    1   
$EndComp
$Comp
L C C410
U 1 1 56E74B78
P 4700 4700
F 0 "C410" H 4725 4800 50  0000 L CNN
F 1 "10n" H 4700 4600 50  0000 L CNN
F 2 "Local:C_0603" H 4738 4550 30  0001 C CNN
F 3 "" H 4700 4700 60  0000 C CNN
	1    4700 4700
	1    0    0    -1  
$EndComp
$Comp
L R R410
U 1 1 56E74C7F
P 4500 4700
F 0 "R410" V 4580 4700 50  0000 C CNN
F 1 "1M" V 4507 4701 50  0000 C CNN
F 2 "Local:R_0603" V 4430 4700 30  0001 C CNN
F 3 "" H 4500 4700 30  0000 C CNN
	1    4500 4700
	-1   0    0    1   
$EndComp
$Comp
L R R408
U 1 1 56E7794A
P 3800 5600
F 0 "R408" V 3900 5600 50  0000 C CNN
F 1 "150K" V 3807 5601 50  0000 C CNN
F 2 "Local:R_0603" V 3730 5600 30  0001 C CNN
F 3 "" H 3800 5600 30  0000 C CNN
	1    3800 5600
	-1   0    0    1   
$EndComp
Text GLabel 3800 5850 3    47   Input ~ 0
+5VA
Text Notes 4550 4400 0    60   ~ 0
Stage two amplifier
Text Notes 2850 4300 0    60   ~ 0
Stage one amplifier
Text GLabel 5600 5250 2    47   Input ~ 0
PIR_SIG
$Comp
L STM32F030F4P6 U301
U 1 1 57C6E888
P 8400 1500
F 0 "U301" H 8400 2300 60  0000 C CNN
F 1 "STM32F030F4P6" H 9400 900 60  0000 C CNN
F 2 "Local:TSSOP-20_4.4x6.5mm_Pitch0.65mm" H 8600 1500 60  0001 C CNN
F 3 "" H 8600 1500 60  0000 C CNN
	1    8400 1500
	1    0    0    -1  
$EndComp
Text GLabel 6100 1400 0    47   Input ~ 0
PIR_SIG
Text GLabel 6100 1500 0    47   Input ~ 0
THERMO_SIG
Text GLabel 6100 1600 0    47   Input ~ 0
PHOTO_SIG
Text GLabel 10700 1900 2    47   Input ~ 0
+3V3A
Text GLabel 6100 2000 0    47   Input ~ 0
SWDIO
Text GLabel 6100 2100 0    47   Input ~ 0
SWCLK
$Comp
L GND #PWR011
U 1 1 57C73547
P 10700 1600
F 0 "#PWR011" H 10700 1350 60  0001 C CNN
F 1 "GND" V 10700 1400 60  0000 C CNN
F 2 "" H 10700 1600 60  0000 C CNN
F 3 "" H 10700 1600 60  0000 C CNN
	1    10700 1600
	0    -1   -1   0   
$EndComp
Text GLabel 6100 1000 0    47   Input ~ 0
RS485_DE
$Comp
L MAX485 U302
U 1 1 57C73ED7
P 7700 3150
F 0 "U302" H 7700 3450 60  0000 C CNN
F 1 "MAX485" H 7700 2850 60  0000 C CNN
F 2 "Local:SOIC-8_3.9x4.9mm_Pitch1.27mm" H 7540 3150 60  0001 C CNN
F 3 "" H 7540 3150 60  0000 C CNN
	1    7700 3150
	1    0    0    -1  
$EndComp
Text GLabel 7200 3300 0    47   Input ~ 0
RS485_DI
Text GLabel 7200 3000 0    47   Input ~ 0
RS485_RO
Text GLabel 7100 3100 0    47   Input ~ 0
RS485_DE
$Comp
L GND #PWR012
U 1 1 57C747C0
P 8200 3400
F 0 "#PWR012" H 8200 3150 50  0001 C CNN
F 1 "GND" H 8200 3250 50  0000 C CNN
F 2 "" H 8200 3400 60  0000 C CNN
F 3 "" H 8200 3400 60  0000 C CNN
	1    8200 3400
	1    0    0    -1  
$EndComp
$Comp
L +3V3 #PWR013
U 1 1 57C749DF
P 8200 2900
F 0 "#PWR013" H 8200 2750 50  0001 C CNN
F 1 "+3V3" H 8200 3040 50  0000 C CNN
F 2 "" H 8200 2900 60  0000 C CNN
F 3 "" H 8200 2900 60  0000 C CNN
	1    8200 2900
	1    0    0    -1  
$EndComp
Text GLabel 8200 3100 2    47   Input ~ 0
RS485_B
Text GLabel 8200 3200 2    47   Input ~ 0
RS485_A
$Comp
L RJ12 J302
U 1 1 57C7500A
P 7750 4200
F 0 "J302" H 7950 4700 50  0000 C CNN
F 1 "RS485" H 7600 4700 50  0000 C CNN
F 2 "Local:RJ12" H 7750 4200 50  0001 C CNN
F 3 "" H 7750 4200 50  0000 C CNN
	1    7750 4200
	0    1    1    0   
$EndComp
$Comp
L +3V3 #PWR014
U 1 1 57C755C1
P 7200 3900
F 0 "#PWR014" H 7200 3750 50  0001 C CNN
F 1 "+3V3" H 7200 4040 50  0000 C CNN
F 2 "" H 7200 3900 60  0000 C CNN
F 3 "" H 7200 3900 60  0000 C CNN
	1    7200 3900
	1    0    0    -1  
$EndComp
$Comp
L GND #PWR015
U 1 1 57C75641
P 7200 4600
F 0 "#PWR015" H 7200 4350 50  0001 C CNN
F 1 "GND" H 7200 4450 50  0000 C CNN
F 2 "" H 7200 4600 60  0000 C CNN
F 3 "" H 7200 4600 60  0000 C CNN
	1    7200 4600
	1    0    0    -1  
$EndComp
Text GLabel 7100 4100 0    47   Input ~ 0
RS485_A
Text GLabel 7100 4300 0    47   Input ~ 0
RS485_B
NoConn ~ 10700 1100
NoConn ~ 10700 1200
$Comp
L SWD J301
U 1 1 57C76744
P 9500 4150
F 0 "J301" H 9500 4450 60  0000 C CNN
F 1 "SWD" H 9500 3850 60  0000 C CNN
F 2 "Local:Pin_Header_Straight_1x04" H 9300 4150 60  0001 C CNN
F 3 "" H 9300 4150 60  0000 C CNN
	1    9500 4150
	1    0    0    -1  
$EndComp
Text GLabel 8900 4000 0    47   Input ~ 0
SWDIO
Text GLabel 8900 4200 0    47   Input ~ 0
SWCLK
$Comp
L +3V3 #PWR016
U 1 1 57C76C69
P 9000 3900
F 0 "#PWR016" H 9000 3750 50  0001 C CNN
F 1 "+3V3" H 9000 4040 50  0000 C CNN
F 2 "" H 9000 3900 60  0000 C CNN
F 3 "" H 9000 3900 60  0000 C CNN
	1    9000 3900
	1    0    0    -1  
$EndComp
$Comp
L GND #PWR017
U 1 1 57C76D14
P 9000 4400
F 0 "#PWR017" H 9000 4150 50  0001 C CNN
F 1 "GND" H 9000 4250 50  0000 C CNN
F 2 "" H 9000 4400 60  0000 C CNN
F 3 "" H 9000 4400 60  0000 C CNN
	1    9000 4400
	1    0    0    -1  
$EndComp
$Comp
L R R301
U 1 1 57C7869C
P 10250 3100
F 0 "R301" V 10350 3100 50  0000 C CNN
F 1 "0R" V 10257 3101 50  0000 C CNN
F 2 "Local:R_0603" V 10180 3100 30  0001 C CNN
F 3 "" H 10250 3100 30  0000 C CNN
	1    10250 3100
	0    -1   -1   0   
$EndComp
Text GLabel 10500 3000 1    47   Input ~ 0
+3V3A
$Comp
L C C301
U 1 1 57C7BDFC
P 10700 3250
F 0 "C301" H 10725 3350 50  0000 L CNN
F 1 "10n" H 10700 3150 50  0000 L CNN
F 2 "Local:C_0603" H 10738 3100 30  0001 C CNN
F 3 "" H 10700 3250 60  0000 C CNN
	1    10700 3250
	-1   0    0    -1  
$EndComp
$Comp
L CP C302
U 1 1 57C7C027
P 11000 3250
F 0 "C302" H 11025 3350 50  0000 L CNN
F 1 "1u" H 11025 3150 50  0000 L CNN
F 2 "Local:C_0805" H 11038 3100 30  0001 C CNN
F 3 "" H 11000 3250 60  0000 C CNN
	1    11000 3250
	-1   0    0    -1  
$EndComp
Text Notes -1300 4300 0    47   ~ 0
EQ[V[out]]: V[out]=(1+R[1]/R[2])*V[ref];\nEQ[R[2]]: solve(EQ[V[out]], R[2])[1];\nPR[tl431]: V[ref]=2.5$\nPR[R[1]]: R[1]=10e3$\nPR[V[out]]: V[out]=3.0$\nEQ[R[2]], PR[tl431], PR[R[1]], PR[V[out]];\nPR[R[2]]: R[2]=47e3$\nEQ[V[out]], PR[tl431], PR[R[1]], PR[R[2]];
Text Notes 10150 2650 0    60   ~ 0
ANALOG SUPPLY
Text GLabel 2400 1000 1    47   Input ~ 0
+3V3A
Text GLabel 1200 1000 1    47   Input ~ 0
+3V3A
$Comp
L C C304
U 1 1 57CE7DD8
P 10700 4450
F 0 "C304" H 10725 4550 50  0000 L CNN
F 1 "100n" H 10700 4350 50  0000 L CNN
F 2 "Local:C_0603" H 10738 4300 30  0001 C CNN
F 3 "" H 10700 4450 60  0000 C CNN
	1    10700 4450
	-1   0    0    -1  
$EndComp
$Comp
L CP C305
U 1 1 57CE7DDE
P 11000 4450
F 0 "C305" H 11025 4550 50  0000 L CNN
F 1 "10u" H 11025 4350 50  0000 L CNN
F 2 "Local:C_0805" H 11038 4300 30  0001 C CNN
F 3 "" H 11000 4450 60  0000 C CNN
	1    11000 4450
	-1   0    0    -1  
$EndComp
$Comp
L +3V3 #PWR018
U 1 1 57CE80FE
P 10700 4200
F 0 "#PWR018" H 10700 4050 50  0001 C CNN
F 1 "+3V3" H 10700 4340 50  0000 C CNN
F 2 "" H 10700 4200 60  0000 C CNN
F 3 "" H 10700 4200 60  0000 C CNN
	1    10700 4200
	1    0    0    -1  
$EndComp
$Comp
L +3V3 #PWR019
U 1 1 57CE8179
P 11000 4200
F 0 "#PWR019" H 11000 4050 50  0001 C CNN
F 1 "+3V3" H 11000 4340 50  0000 C CNN
F 2 "" H 11000 4200 60  0000 C CNN
F 3 "" H 11000 4200 60  0000 C CNN
	1    11000 4200
	1    0    0    -1  
$EndComp
$Comp
L GND #PWR020
U 1 1 57CE81CC
P 11000 4700
F 0 "#PWR020" H 11000 4450 50  0001 C CNN
F 1 "GND" H 11000 4550 50  0000 C CNN
F 2 "" H 11000 4700 60  0000 C CNN
F 3 "" H 11000 4700 60  0000 C CNN
	1    11000 4700
	1    0    0    -1  
$EndComp
$Comp
L GND #PWR021
U 1 1 57CE8295
P 10700 4700
F 0 "#PWR021" H 10700 4450 50  0001 C CNN
F 1 "GND" H 10700 4550 50  0000 C CNN
F 2 "" H 10700 4700 60  0000 C CNN
F 3 "" H 10700 4700 60  0000 C CNN
	1    10700 4700
	1    0    0    -1  
$EndComp
$Comp
L GND #PWR022
U 1 1 57CE95D1
P 10700 3500
F 0 "#PWR022" H 10700 3250 60  0001 C CNN
F 1 "GND" H 10700 3350 60  0000 C CNN
F 2 "" H 10700 3500 60  0000 C CNN
F 3 "" H 10700 3500 60  0000 C CNN
	1    10700 3500
	1    0    0    -1  
$EndComp
$Comp
L GND #PWR023
U 1 1 57CE964B
P 11000 3500
F 0 "#PWR023" H 11000 3250 60  0001 C CNN
F 1 "GND" H 11000 3350 60  0000 C CNN
F 2 "" H 11000 3500 60  0000 C CNN
F 3 "" H 11000 3500 60  0000 C CNN
	1    11000 3500
	1    0    0    -1  
$EndComp
Text GLabel 10700 3000 1    47   Input ~ 0
+3V3A
Text GLabel 11000 3000 1    47   Input ~ 0
+3V3A
$Comp
L CONN_01X04 P301
U 1 1 57CEA3EB
P 9600 3150
F 0 "P301" H 9550 3400 50  0000 C CNN
F 1 "UART/ESP_FLASH" V 9700 3150 50  0000 C CNN
F 2 "Local:Pin_Header_Straight_1x04" H 9600 3150 50  0001 C CNN
F 3 "" H 9600 3150 50  0000 C CNN
	1    9600 3150
	1    0    0    1   
$EndComp
Text GLabel 6100 1800 0    47   Input ~ 0
UART_TX
Text GLabel 6100 1900 0    47   Input ~ 0
UART_RX
Text GLabel 9200 3000 0    47   Input ~ 0
UART_TX
Text GLabel 9200 3200 0    47   Input ~ 0
UART_RX
$Comp
L GND #PWR024
U 1 1 57CEB91A
P 9300 3400
F 0 "#PWR024" H 9300 3150 50  0001 C CNN
F 1 "GND" H 9300 3250 50  0000 C CNN
F 2 "" H 9300 3400 60  0000 C CNN
F 3 "" H 9300 3400 60  0000 C CNN
	1    9300 3400
	1    0    0    -1  
$EndComp
$Comp
L +3V3 #PWR025
U 1 1 57CEBA55
P 9300 2900
F 0 "#PWR025" H 9300 2750 50  0001 C CNN
F 1 "+3V3" H 9300 3040 50  0000 C CNN
F 2 "" H 9300 2900 60  0000 C CNN
F 3 "" H 9300 2900 60  0000 C CNN
	1    9300 2900
	1    0    0    -1  
$EndComp
$Comp
L AP1117K33 U501
U 1 1 57CECD82
P 4100 1000
F 0 "U501" H 4200 750 50  0000 C CNN
F 1 "AMS1117-3.3" H 4100 1250 50  0000 C CNN
F 2 "Local:SOT-223" H 4100 1000 50  0001 C CNN
F 3 "" H 4100 1000 50  0000 C CNN
	1    4100 1000
	1    0    0    -1  
$EndComp
$Comp
L GND #PWR026
U 1 1 57CED32A
P 4100 1400
F 0 "#PWR026" H 4100 1150 50  0001 C CNN
F 1 "GND" H 4100 1250 50  0000 C CNN
F 2 "" H 4100 1400 60  0000 C CNN
F 3 "" H 4100 1400 60  0000 C CNN
	1    4100 1400
	1    0    0    -1  
$EndComp
$Comp
L +3V3 #PWR027
U 1 1 57CED3D5
P 4500 900
F 0 "#PWR027" H 4500 750 50  0001 C CNN
F 1 "+3V3" H 4500 1040 50  0000 C CNN
F 2 "" H 4500 900 60  0000 C CNN
F 3 "" H 4500 900 60  0000 C CNN
	1    4500 900 
	1    0    0    -1  
$EndComp
$Comp
L C C401
U 1 1 57CF03EB
P 1700 4400
F 0 "C401" H 1725 4500 50  0000 L CNN
F 1 "100n" H 1750 4300 50  0000 L CNN
F 2 "Local:C_0805" H 1738 4250 30  0001 C CNN
F 3 "" H 1700 4400 60  0000 C CNN
	1    1700 4400
	1    0    0    -1  
$EndComp
$Comp
L GND #PWR028
U 1 1 57CF073C
P 1700 4650
F 0 "#PWR028" H 1700 4400 60  0001 C CNN
F 1 "GND" H 1700 4500 60  0000 C CNN
F 2 "" H 1700 4650 60  0000 C CNN
F 3 "" H 1700 4650 60  0000 C CNN
	1    1700 4650
	1    0    0    -1  
$EndComp
$Comp
L R R401
U 1 1 57CF09C2
P 1950 4150
F 0 "R401" V 2050 4150 50  0000 C CNN
F 1 "10K" V 1957 4151 50  0000 C CNN
F 2 "Local:R_0603" V 1880 4150 30  0001 C CNN
F 3 "" H 1950 4150 30  0000 C CNN
	1    1950 4150
	0    -1   -1   0   
$EndComp
$Comp
L C C402
U 1 1 57CF0D00
P 2200 4400
F 0 "C402" H 2225 4500 50  0000 L CNN
F 1 "10u" H 2250 4300 50  0000 L CNN
F 2 "Local:C_0805" H 2238 4250 30  0001 C CNN
F 3 "" H 2200 4400 60  0000 C CNN
	1    2200 4400
	1    0    0    -1  
$EndComp
$Comp
L GND #PWR029
U 1 1 57CF1010
P 2200 4650
F 0 "#PWR029" H 2200 4400 60  0001 C CNN
F 1 "GND" H 2200 4500 60  0000 C CNN
F 2 "" H 2200 4650 60  0000 C CNN
F 3 "" H 2200 4650 60  0000 C CNN
	1    2200 4650
	1    0    0    -1  
$EndComp
$Comp
L R R402
U 1 1 57CF12C8
P 2450 4150
F 0 "R402" V 2550 4150 50  0000 C CNN
F 1 "10K" V 2457 4151 50  0000 C CNN
F 2 "Local:R_0603" V 2380 4150 30  0001 C CNN
F 3 "" H 2450 4150 30  0000 C CNN
	1    2450 4150
	0    -1   -1   0   
$EndComp
$Comp
L ESP-12 U303
U 1 1 583B1F41
P 8300 5650
F 0 "U303" H 8300 6150 60  0000 C CNN
F 1 "ESP-12" H 8300 5150 60  0000 C CNN
F 2 "Local:ESP-12" H 8300 5650 60  0001 C CNN
F 3 "" H 8300 5650 60  0000 C CNN
	1    8300 5650
	1    0    0    -1  
$EndComp
$Comp
L +3V3 #PWR030
U 1 1 583B4E96
P 7100 6000
F 0 "#PWR030" H 7100 5850 60  0001 C CNN
F 1 "+3V3" V 7100 6250 60  0000 C CNN
F 2 "" H 7100 6000 60  0000 C CNN
F 3 "" H 7100 6000 60  0000 C CNN
	1    7100 6000
	0    -1   -1   0   
$EndComp
$Comp
L GND #PWR031
U 1 1 583B540C
P 9500 6100
F 0 "#PWR031" H 9500 5850 60  0001 C CNN
F 1 "GND" H 9500 5950 60  0000 C CNN
F 2 "" H 9500 6100 60  0000 C CNN
F 3 "" H 9500 6100 60  0000 C CNN
	1    9500 6100
	1    0    0    -1  
$EndComp
Text GLabel 9500 5400 2    47   Input ~ 0
UART_TX
Text GLabel 9500 5300 2    47   Input ~ 0
UART_RX
Text GLabel 9500 5700 2    47   Input ~ 0
~ESP_FLASH
Text GLabel 7100 5300 0    47   Input ~ 0
~ESP_RESET
Text GLabel 7100 5600 0    47   Input ~ 0
~ESP_RESET
Text GLabel 7100 5500 0    47   Input ~ 0
ESP_ENABLE
Text GLabel 6100 900  0    47   Input ~ 0
ESP_ENABLE
$Comp
L SW_PUSH_SMALL S301
U 1 1 583B812E
P 10600 5900
F 0 "S301" H 10750 5950 50  0000 C CNN
F 1 "ESP_FLASH" V 10450 5900 50  0000 C CNN
F 2 "Local:MICRO_SW" H 10600 5900 50  0001 C CNN
F 3 "" H 10600 5900 50  0000 C CNN
	1    10600 5900
	1    0    0    -1  
$EndComp
$Comp
L GND #PWR032
U 1 1 583B85DB
P 10700 6100
F 0 "#PWR032" H 10700 5850 60  0001 C CNN
F 1 "GND" H 10700 5950 60  0000 C CNN
F 2 "" H 10700 6100 60  0000 C CNN
F 3 "" H 10700 6100 60  0000 C CNN
	1    10700 6100
	1    0    0    -1  
$EndComp
$Comp
L R R302
U 1 1 583B8AAB
P 10500 5450
F 0 "R302" V 10580 5450 50  0000 C CNN
F 1 "10K" V 10507 5451 50  0000 C CNN
F 2 "Local:R_0603" V 10430 5450 30  0001 C CNN
F 3 "" H 10500 5450 30  0000 C CNN
	1    10500 5450
	-1   0    0    1   
$EndComp
Text GLabel 10600 5700 2    47   Input ~ 0
~ESP_FLASH
$Comp
L +3V3 #PWR033
U 1 1 583B97DA
P 10500 5200
F 0 "#PWR033" H 10500 5050 50  0001 C CNN
F 1 "+3V3" H 10500 5340 50  0000 C CNN
F 2 "" H 10500 5200 60  0000 C CNN
F 3 "" H 10500 5200 60  0000 C CNN
	1    10500 5200
	1    0    0    -1  
$EndComp
NoConn ~ 7100 5400
NoConn ~ 7100 5700
NoConn ~ 7100 5800
NoConn ~ 9500 5500
NoConn ~ 9500 5600
NoConn ~ 9500 5800
$Comp
L +3V3 #PWR034
U 1 1 583BE67D
P 10000 3000
F 0 "#PWR034" H 10000 2850 50  0001 C CNN
F 1 "+3V3" H 10000 3140 50  0000 C CNN
F 2 "" H 10000 3000 60  0000 C CNN
F 3 "" H 10000 3000 60  0000 C CNN
	1    10000 3000
	1    0    0    -1  
$EndComp
$Comp
L AP1117K33 U502
U 1 1 583C2B6C
P 4100 2100
F 0 "U502" H 4200 1850 50  0000 C CNN
F 1 "AMS1117-3.3" H 4100 2350 50  0000 C CNN
F 2 "Local:SOT-223" H 4100 2100 50  0001 C CNN
F 3 "" H 4100 2100 50  0000 C CNN
	1    4100 2100
	1    0    0    -1  
$EndComp
$Comp
L GND #PWR035
U 1 1 583C2B75
P 3600 2600
F 0 "#PWR035" H 3600 2350 50  0001 C CNN
F 1 "GND" H 3600 2450 50  0000 C CNN
F 2 "" H 3600 2600 60  0000 C CNN
F 3 "" H 3600 2600 60  0000 C CNN
	1    3600 2600
	1    0    0    -1  
$EndComp
$Comp
L VCC #PWR036
U 1 1 583C4309
P 3700 900
F 0 "#PWR036" H 3700 750 50  0001 C CNN
F 1 "VCC" H 3700 1050 50  0000 C CNN
F 2 "" H 3700 900 50  0000 C CNN
F 3 "" H 3700 900 50  0000 C CNN
	1    3700 900 
	1    0    0    -1  
$EndComp
$Comp
L VCC #PWR037
U 1 1 583C4503
P 3700 2000
F 0 "#PWR037" H 3700 1850 50  0001 C CNN
F 1 "VCC" H 3700 2150 50  0000 C CNN
F 2 "" H 3700 2000 50  0000 C CNN
F 3 "" H 3700 2000 50  0000 C CNN
	1    3700 2000
	1    0    0    -1  
$EndComp
Text GLabel 4500 2000 1    47   Input ~ 0
+5VA
$Comp
L CP C503
U 1 1 583C4943
P 5200 2250
F 0 "C503" H 5225 2350 50  0000 L CNN
F 1 "10u" H 5225 2150 50  0000 L CNN
F 2 "Local:C_0805" H 5238 2100 30  0001 C CNN
F 3 "" H 5200 2250 60  0000 C CNN
	1    5200 2250
	-1   0    0    -1  
$EndComp
$Comp
L GND #PWR038
U 1 1 583C4951
P 5200 2500
F 0 "#PWR038" H 5200 2250 50  0001 C CNN
F 1 "GND" H 5200 2350 50  0000 C CNN
F 2 "" H 5200 2500 60  0000 C CNN
F 3 "" H 5200 2500 60  0000 C CNN
	1    5200 2500
	1    0    0    -1  
$EndComp
$Comp
L C C502
U 1 1 583C4B16
P 4900 2250
F 0 "C502" H 4925 2350 50  0000 L CNN
F 1 "100n" H 4900 2150 50  0000 L CNN
F 2 "Local:C_0603" H 4938 2100 30  0001 C CNN
F 3 "" H 4900 2250 60  0000 C CNN
	1    4900 2250
	-1   0    0    -1  
$EndComp
$Comp
L GND #PWR039
U 1 1 583C4B24
P 4900 2500
F 0 "#PWR039" H 4900 2250 50  0001 C CNN
F 1 "GND" H 4900 2350 50  0000 C CNN
F 2 "" H 4900 2500 60  0000 C CNN
F 3 "" H 4900 2500 60  0000 C CNN
	1    4900 2500
	1    0    0    -1  
$EndComp
Text GLabel 4900 2000 1    47   Input ~ 0
+5VA
Text GLabel 5200 2000 1    47   Input ~ 0
+5VA
$Comp
L R R501
U 1 1 583C5648
P 3850 2500
F 0 "R501" V 3950 2500 50  0000 C CNN
F 1 "150" V 3857 2501 50  0000 C CNN
F 2 "Local:R_0603" V 3780 2500 30  0001 C CNN
F 3 "" H 3850 2500 30  0000 C CNN
	1    3850 2500
	0    -1   -1   0   
$EndComp
$Comp
L R R502
U 1 1 583C572A
P 4350 2500
F 0 "R502" V 4450 2500 50  0000 C CNN
F 1 "330" V 4357 2501 50  0000 C CNN
F 2 "Local:R_0603" V 4280 2500 30  0001 C CNN
F 3 "" H 4350 2500 30  0000 C CNN
	1    4350 2500
	0    -1   -1   0   
$EndComp
Text GLabel 4600 2400 1    47   Input ~ 0
+5VA
Text Notes 3600 3750 0    39   ~ 0
/* PIR supply regulator */\n\nEQ[I[MIN]]: I[MIN]=U[OUT]/(R[H]+R[L]);\nEQ[U[OUT]]: solve(U[OUT]/(R[H]+R[L])=(U[OUT]-U[STD])/R[L]-I[ADJ], U[OUT])[1];\nEQ[R[H]]: solve(EQ[U[OUT]], R[H])[1];\n\nPR[AMS1117]: [U[STD]=3.3, I[ADJ]=120e-6, I[MIN]=10e-3]$\nPR[U[OUT]]: U[OUT]=5$\nPR[R[L]]: R[L]=150$\n\nEQ[R[H]], PR[AMS1117], PR[U[OUT]], PR[R[L]];\nPR[R[H]]: R[H]=330$\n\nEQ[I[MIN]], PR[U[OUT]], PR[R[L]], PR[R[H]], numer;\nEQ[U[OUT]], PR[AMS1117], PR[R[L]], PR[R[H]];
$Comp
L CP C501
U 1 1 583CB150
P 4800 1150
F 0 "C501" H 4825 1250 50  0000 L CNN
F 1 "100u" H 4825 1050 50  0000 L CNN
F 2 "Local:C_Radial_D6.3_L11.2_P2.5" H 4838 1000 30  0001 C CNN
F 3 "" H 4800 1150 60  0000 C CNN
	1    4800 1150
	-1   0    0    -1  
$EndComp
$Comp
L +3V3 #PWR040
U 1 1 583CB156
P 4800 900
F 0 "#PWR040" H 4800 750 50  0001 C CNN
F 1 "+3V3" H 4800 1040 50  0000 C CNN
F 2 "" H 4800 900 60  0000 C CNN
F 3 "" H 4800 900 60  0000 C CNN
	1    4800 900 
	1    0    0    -1  
$EndComp
$Comp
L GND #PWR041
U 1 1 583CB15C
P 4800 1400
F 0 "#PWR041" H 4800 1150 50  0001 C CNN
F 1 "GND" H 4800 1250 50  0000 C CNN
F 2 "" H 4800 1400 60  0000 C CNN
F 3 "" H 4800 1400 60  0000 C CNN
	1    4800 1400
	1    0    0    -1  
$EndComp
Text Notes 4250 2650 0    60   ~ 0
R[H]
Text Notes 3750 2650 0    60   ~ 0
R[L]
$Sheet
S 800  6700 1500 700 
U 583CF944
F0 "Supply" 60
F1 "supply.sch" 60
$EndSheet
$Comp
L CONN_01X01 M1
U 1 1 583D36AE
P 2700 6850
F 0 "M1" H 2700 6950 50  0000 C CNN
F 1 "M3" V 2800 6850 50  0000 C CNN
F 2 "Local:MountingHole_3mm" H 2700 6850 50  0001 C CNN
F 3 "" H 2700 6850 50  0000 C CNN
	1    2700 6850
	0    -1   -1   0   
$EndComp
$Comp
L CONN_01X01 M2
U 1 1 583D36B5
P 3000 6850
F 0 "M2" H 3000 6950 50  0000 C CNN
F 1 "M3" V 3100 6850 50  0000 C CNN
F 2 "Local:MountingHole_3mm" H 3000 6850 50  0001 C CNN
F 3 "" H 3000 6850 50  0000 C CNN
	1    3000 6850
	0    -1   -1   0   
$EndComp
$Comp
L CONN_01X01 M3
U 1 1 583D36BC
P 3300 6850
F 0 "M3" H 3300 6950 50  0000 C CNN
F 1 "M3" V 3400 6850 50  0000 C CNN
F 2 "Local:MountingHole_3mm" H 3300 6850 50  0001 C CNN
F 3 "" H 3300 6850 50  0000 C CNN
	1    3300 6850
	0    -1   -1   0   
$EndComp
$Comp
L CONN_01X01 M4
U 1 1 583D36C3
P 3600 6850
F 0 "M4" H 3600 6950 50  0000 C CNN
F 1 "M3" V 3700 6850 50  0000 C CNN
F 2 "Local:MountingHole_3mm" H 3600 6850 50  0001 C CNN
F 3 "" H 3600 6850 50  0000 C CNN
	1    3600 6850
	0    -1   -1   0   
$EndComp
$Comp
L GND #PWR042
U 1 1 583D36CA
P 2700 7150
F 0 "#PWR042" H 2700 6900 50  0001 C CNN
F 1 "GND" H 2700 7000 50  0000 C CNN
F 2 "" H 2700 7150 50  0000 C CNN
F 3 "" H 2700 7150 50  0000 C CNN
	1    2700 7150
	1    0    0    -1  
$EndComp
$Comp
L GND #PWR043
U 1 1 583D36D1
P 3000 7150
F 0 "#PWR043" H 3000 6900 50  0001 C CNN
F 1 "GND" H 3000 7000 50  0000 C CNN
F 2 "" H 3000 7150 50  0000 C CNN
F 3 "" H 3000 7150 50  0000 C CNN
	1    3000 7150
	1    0    0    -1  
$EndComp
$Comp
L GND #PWR044
U 1 1 583D36D8
P 3300 7150
F 0 "#PWR044" H 3300 6900 50  0001 C CNN
F 1 "GND" H 3300 7000 50  0000 C CNN
F 2 "" H 3300 7150 50  0000 C CNN
F 3 "" H 3300 7150 50  0000 C CNN
	1    3300 7150
	1    0    0    -1  
$EndComp
$Comp
L GND #PWR045
U 1 1 583D36DF
P 3600 7150
F 0 "#PWR045" H 3600 6900 50  0001 C CNN
F 1 "GND" H 3600 7000 50  0000 C CNN
F 2 "" H 3600 7150 50  0000 C CNN
F 3 "" H 3600 7150 50  0000 C CNN
	1    3600 7150
	1    0    0    -1  
$EndComp
$Comp
L TRIAK U102
U 1 1 583D9191
P 5500 6950
F 0 "U102" H 5475 7050 50  0000 R CNN
F 1 "BTA12" H 5750 6950 50  0000 C CNN
F 2 "Local:TO-220_Neutral123_Horizontal" V 5475 6950 50  0001 C CNN
F 3 "" V 5475 6950 50  0000 C CNN
	1    5500 6950
	1    0    0    -1  
$EndComp
$Comp
L R R103
U 1 1 583D9C0B
P 5250 7200
F 0 "R103" V 5350 7200 50  0000 C CNN
F 1 "330" V 5257 7201 50  0000 C CNN
F 2 "Local:R_1206" V 5180 7200 30  0001 C CNN
F 3 "" H 5250 7200 30  0000 C CNN
	1    5250 7200
	0    -1   -1   0   
$EndComp
$Comp
L R R102
U 1 1 583DA55C
P 5250 6700
F 0 "R102" V 5350 6700 50  0000 C CNN
F 1 "360" V 5257 6701 50  0000 C CNN
F 2 "Local:R_1206" V 5180 6700 30  0001 C CNN
F 3 "" H 5250 6700 30  0000 C CNN
	1    5250 6700
	0    -1   -1   0   
$EndComp
$Comp
L MOC3081M U101
U 1 1 583DAE93
P 4700 6800
F 0 "U101" H 4500 7000 50  0000 L CNN
F 1 "MOC3081M" H 4500 6600 50  0000 L CNN
F 2 "Local:DIP-6_W7.62mm" H 4500 6600 50  0001 L CIN
F 3 "" H 4690 6800 50  0000 L CNN
	1    4700 6800
	1    0    0    -1  
$EndComp
$Comp
L +3V3 #PWR046
U 1 1 583DB725
P 4300 6600
F 0 "#PWR046" H 4300 6450 50  0001 C CNN
F 1 "+3V3" H 4300 6740 50  0000 C CNN
F 2 "" H 4300 6600 60  0000 C CNN
F 3 "" H 4300 6600 60  0000 C CNN
	1    4300 6600
	1    0    0    -1  
$EndComp
$Comp
L R R101
U 1 1 583DBF51
P 4300 7150
F 0 "R101" V 4400 7150 50  0000 C CNN
F 1 "150" V 4307 7151 50  0000 C CNN
F 2 "Local:R_0603" V 4230 7150 30  0001 C CNN
F 3 "" H 4300 7150 30  0000 C CNN
	1    4300 7150
	-1   0    0    1   
$EndComp
Text GLabel 4400 7400 2    47   Input ~ 0
~LIGHT_CTL
Text GLabel 5600 6700 2    60   Input ~ 0
LINE
Text GLabel 5400 7400 0    60   Input ~ 0
ZERO
$Comp
L CONN_01X02 P101
U 1 1 583DFE15
P 5800 7350
F 0 "P101" H 5800 7500 50  0000 C CNN
F 1 "LIGHT" V 5900 7350 50  0000 C CNN
F 2 "Local:2PIN_HEAD" H 5800 7350 50  0001 C CNN
F 3 "" H 5800 7350 50  0000 C CNN
	1    5800 7350
	1    0    0    1   
$EndComp
Wire Wire Line
	6200 1100 6100 1100
Wire Wire Line
	6200 1200 6100 1200
Wire Wire Line
	10600 900  10700 900 
Wire Wire Line
	10600 1400 10700 1400
Wire Wire Line
	1200 1400 1200 1600
Wire Wire Line
	1200 1100 1200 1000
Wire Wire Line
	1400 5050 2100 5050
Wire Wire Line
	1700 5050 1700 5150
Wire Wire Line
	2000 5050 2000 5150
Connection ~ 1700 5050
Wire Wire Line
	1700 5450 1700 5550
Wire Wire Line
	2000 5450 2000 5650
Wire Wire Line
	1700 5550 2000 5550
Wire Wire Line
	1400 5200 1500 5200
Wire Wire Line
	1500 5200 1500 5300
Wire Wire Line
	5000 5650 5000 5550
Wire Wire Line
	5000 4950 5000 4850
Connection ~ 2000 5550
Connection ~ 2000 5050
Wire Wire Line
	3000 5750 3000 5650
Wire Wire Line
	3000 6050 3000 6150
Wire Wire Line
	2400 1400 2400 1600
Wire Wire Line
	2400 1100 2400 1000
Wire Wire Line
	1200 2100 1200 2300
Wire Wire Line
	1000 1500 1600 1500
Connection ~ 1200 1500
Wire Wire Line
	1000 1500 1000 1400
Wire Wire Line
	2400 2100 2400 2300
Wire Wire Line
	2200 1500 2800 1500
Wire Wire Line
	2200 1500 2200 1400
Connection ~ 2400 1500
Wire Wire Line
	1600 1500 1600 1700
Wire Wire Line
	1200 2200 1600 2200
Wire Wire Line
	1600 2200 1600 2000
Connection ~ 1200 2200
Wire Wire Line
	2800 1500 2800 1700
Wire Wire Line
	2400 2200 2800 2200
Wire Wire Line
	2800 2200 2800 2000
Connection ~ 2400 2200
Wire Wire Line
	3300 4750 3300 4850
Wire Wire Line
	3300 5450 3300 5550
Wire Wire Line
	3700 5150 3900 5150
Wire Wire Line
	1500 4150 1500 4900
Wire Wire Line
	1500 4900 1400 4900
Wire Wire Line
	2900 5250 3100 5250
Wire Wire Line
	3000 4750 3000 5350
Wire Wire Line
	2400 5050 3100 5050
Wire Wire Line
	2500 5050 2500 5250
Wire Wire Line
	2500 5250 2600 5250
Connection ~ 3000 5250
Connection ~ 2500 5050
Wire Wire Line
	2800 4750 2800 4850
Wire Wire Line
	2800 4850 3000 4850
Connection ~ 3000 4850
Wire Wire Line
	4300 5150 4200 5150
Wire Wire Line
	4600 5150 4800 5150
Wire Wire Line
	3800 5350 4800 5350
Wire Wire Line
	4700 5350 4700 5450
Wire Wire Line
	4400 5350 4400 5450
Connection ~ 4700 5350
Wire Wire Line
	4100 5350 4100 5450
Connection ~ 4400 5350
Wire Wire Line
	4100 5750 4100 5850
Wire Wire Line
	4100 5850 4700 5850
Wire Wire Line
	4400 5750 4400 5950
Wire Wire Line
	4700 5850 4700 5750
Connection ~ 4400 5850
Wire Wire Line
	4700 4850 4700 5150
Connection ~ 4700 5150
Wire Wire Line
	4700 4950 4500 4950
Wire Wire Line
	4500 4950 4500 4850
Connection ~ 4700 4950
Wire Wire Line
	4700 4550 4700 4450
Wire Wire Line
	4500 4450 5500 4450
Wire Wire Line
	5500 4450 5500 5250
Wire Wire Line
	5400 5250 5600 5250
Connection ~ 5500 5250
Connection ~ 4100 5350
Wire Wire Line
	3800 5350 3800 5450
Wire Wire Line
	3800 5750 3800 5850
Wire Wire Line
	3000 4350 3000 4450
Wire Wire Line
	2800 4450 2800 4350
Wire Wire Line
	2800 4350 3800 4350
Wire Wire Line
	3800 4350 3800 5150
Connection ~ 3000 4350
Connection ~ 3800 5150
Wire Wire Line
	4500 4450 4500 4550
Connection ~ 4700 4450
Wire Wire Line
	6200 1300 6100 1300
Wire Wire Line
	6200 1400 6100 1400
Wire Wire Line
	6200 1500 6100 1500
Wire Wire Line
	10700 1800 10600 1800
Wire Wire Line
	10600 2100 10700 2100
Wire Wire Line
	10700 2100 10700 2200
Wire Wire Line
	10600 1900 10700 1900
Wire Wire Line
	6200 2000 6100 2000
Wire Wire Line
	6200 2100 6100 2100
Wire Wire Line
	10600 1600 10700 1600
Wire Wire Line
	6200 1000 6100 1000
Wire Wire Line
	7100 3100 7300 3100
Wire Wire Line
	7300 3200 7200 3200
Wire Wire Line
	7200 3200 7200 3100
Connection ~ 7200 3100
Wire Wire Line
	7200 3000 7300 3000
Wire Wire Line
	7300 3300 7200 3300
Wire Wire Line
	8100 3000 8200 3000
Wire Wire Line
	8200 3000 8200 2900
Wire Wire Line
	8100 3300 8200 3300
Wire Wire Line
	8200 3300 8200 3400
Wire Wire Line
	8100 3100 8200 3100
Wire Wire Line
	8100 3200 8200 3200
Wire Wire Line
	7300 4100 7100 4100
Wire Wire Line
	7300 4300 7100 4300
Wire Wire Line
	7300 4400 7200 4400
Wire Wire Line
	7200 4400 7200 4600
Wire Wire Line
	7300 4200 7200 4200
Wire Wire Line
	7200 4200 7200 3900
Wire Wire Line
	6200 1800 6100 1800
Wire Wire Line
	6200 1900 6100 1900
Wire Wire Line
	6200 900  6100 900 
Wire Wire Line
	6200 1600 6100 1600
Wire Wire Line
	10600 1100 10700 1100
Wire Wire Line
	10600 1200 10700 1200
Wire Wire Line
	9100 4100 9000 4100
Wire Wire Line
	9000 4100 9000 3900
Wire Wire Line
	9100 4300 9000 4300
Wire Wire Line
	9000 4300 9000 4400
Wire Wire Line
	9100 4000 8900 4000
Wire Wire Line
	9100 4200 8900 4200
Wire Wire Line
	10100 3100 10000 3100
Wire Wire Line
	10000 3100 10000 3000
Wire Wire Line
	10500 3000 10500 3100
Wire Wire Line
	10500 3100 10400 3100
Wire Wire Line
	10700 4300 10700 4200
Wire Wire Line
	11000 4300 11000 4200
Wire Wire Line
	11000 4600 11000 4700
Wire Wire Line
	10700 4600 10700 4700
Wire Wire Line
	10700 3000 10700 3100
Wire Wire Line
	11000 3000 11000 3100
Wire Wire Line
	11000 3400 11000 3500
Wire Wire Line
	10700 3400 10700 3500
Wire Wire Line
	9400 3300 9300 3300
Wire Wire Line
	9300 3300 9300 3400
Wire Wire Line
	9400 3100 9300 3100
Wire Wire Line
	9300 3100 9300 2900
Wire Wire Line
	9400 3000 9200 3000
Wire Wire Line
	9400 3200 9200 3200
Wire Wire Line
	4100 1300 4100 1400
Wire Wire Line
	4400 1000 4500 1000
Wire Wire Line
	3800 1000 3700 1000
Wire Wire Line
	4500 1000 4500 900 
Wire Wire Line
	3700 1000 3700 900 
Wire Wire Line
	1500 4150 1800 4150
Wire Wire Line
	1700 4150 1700 4250
Wire Wire Line
	1700 4550 1700 4650
Connection ~ 1700 4150
Wire Wire Line
	2100 4150 2300 4150
Wire Wire Line
	2200 4150 2200 4250
Wire Wire Line
	2200 4550 2200 4650
Connection ~ 2200 4150
Wire Wire Line
	2600 4150 2700 4150
Wire Wire Line
	9400 5300 9500 5300
Wire Wire Line
	9400 5400 9500 5400
Wire Wire Line
	9400 5700 9500 5700
Wire Wire Line
	9400 5600 9500 5600
Wire Wire Line
	9400 5500 9500 5500
Wire Wire Line
	9400 5800 9500 5800
Wire Wire Line
	9400 5900 9500 5900
Wire Wire Line
	9400 6000 9500 6000
Wire Wire Line
	7200 5300 7100 5300
Wire Wire Line
	7200 5400 7100 5400
Wire Wire Line
	7200 5500 7100 5500
Wire Wire Line
	7200 5600 7100 5600
Wire Wire Line
	7200 5700 7100 5700
Wire Wire Line
	7200 5800 7100 5800
Wire Wire Line
	7200 5900 7100 5900
Wire Wire Line
	7200 6000 7100 6000
Wire Wire Line
	9500 5900 9500 6100
Wire Wire Line
	10700 6000 10700 6100
Wire Wire Line
	10500 5600 10500 5800
Wire Wire Line
	10500 5700 10600 5700
Connection ~ 10500 5700
Wire Wire Line
	10500 5300 10500 5200
Connection ~ 9500 6000
Wire Wire Line
	3600 2500 3600 2600
Wire Wire Line
	4400 2100 4500 2100
Wire Wire Line
	3800 2100 3700 2100
Wire Wire Line
	4500 2100 4500 2000
Wire Wire Line
	3700 2100 3700 2000
Wire Wire Line
	5200 2100 5200 2000
Wire Wire Line
	5200 2400 5200 2500
Wire Wire Line
	4900 2100 4900 2000
Wire Wire Line
	4900 2400 4900 2500
Wire Wire Line
	4600 2400 4600 2500
Wire Wire Line
	3700 2500 3600 2500
Wire Wire Line
	4000 2500 4200 2500
Wire Wire Line
	4100 2500 4100 2400
Connection ~ 4100 2500
Wire Wire Line
	4600 2500 4500 2500
Wire Wire Line
	4800 1000 4800 900 
Wire Wire Line
	4800 1300 4800 1400
Wire Wire Line
	2700 7050 2700 7150
Wire Wire Line
	3000 7050 3000 7150
Wire Wire Line
	3300 7050 3300 7150
Wire Wire Line
	3600 7050 3600 7150
Wire Wire Line
	5500 7100 5500 7300
Wire Wire Line
	5500 7200 5400 7200
Wire Wire Line
	5000 7050 5300 7050
Wire Wire Line
	5000 7050 5000 7200
Wire Wire Line
	5000 7200 5100 7200
Wire Wire Line
	5500 6800 5500 6700
Wire Wire Line
	5400 6700 5600 6700
Wire Wire Line
	5100 6700 5000 6700
Connection ~ 5500 6700
Connection ~ 5500 7200
Wire Wire Line
	5000 6900 5200 6900
Wire Wire Line
	5200 6900 5200 7050
Connection ~ 5200 7050
Wire Wire Line
	4400 6700 4300 6700
Wire Wire Line
	4400 6900 4300 6900
Wire Wire Line
	4300 6900 4300 7000
Wire Wire Line
	4300 6700 4300 6600
Wire Wire Line
	4300 7300 4300 7400
Wire Wire Line
	4300 7400 4400 7400
Wire Wire Line
	5500 7300 5600 7300
Wire Wire Line
	5600 7400 5400 7400
Text Notes 4900 6500 0    60   ~ 0
LIGHT SWITCH
$Comp
L C C303
U 1 1 583EAA72
P 10400 4450
F 0 "C303" H 10425 4550 50  0000 L CNN
F 1 "100n" H 10400 4350 50  0000 L CNN
F 2 "Local:C_0603" H 10438 4300 30  0001 C CNN
F 3 "" H 10400 4450 60  0000 C CNN
	1    10400 4450
	-1   0    0    -1  
$EndComp
$Comp
L +3V3 #PWR047
U 1 1 583EAA78
P 10400 4200
F 0 "#PWR047" H 10400 4050 50  0001 C CNN
F 1 "+3V3" H 10400 4340 50  0000 C CNN
F 2 "" H 10400 4200 60  0000 C CNN
F 3 "" H 10400 4200 60  0000 C CNN
	1    10400 4200
	1    0    0    -1  
$EndComp
$Comp
L GND #PWR048
U 1 1 583EAA7E
P 10400 4700
F 0 "#PWR048" H 10400 4450 50  0001 C CNN
F 1 "GND" H 10400 4550 50  0000 C CNN
F 2 "" H 10400 4700 60  0000 C CNN
F 3 "" H 10400 4700 60  0000 C CNN
	1    10400 4700
	1    0    0    -1  
$EndComp
Wire Wire Line
	10400 4300 10400 4200
Wire Wire Line
	10400 4600 10400 4700
Text GLabel 10100 4200 1    47   Input ~ 0
~RESET
$Comp
L C C306
U 1 1 583EC0BC
P 10100 4450
F 0 "C306" H 10125 4550 50  0000 L CNN
F 1 "100n" H 10100 4350 50  0000 L CNN
F 2 "Local:C_0603" H 10138 4300 30  0001 C CNN
F 3 "" H 10100 4450 60  0000 C CNN
	1    10100 4450
	-1   0    0    -1  
$EndComp
$Comp
L GND #PWR049
U 1 1 583EC0C2
P 10100 4700
F 0 "#PWR049" H 10100 4450 50  0001 C CNN
F 1 "GND" H 10100 4550 50  0000 C CNN
F 2 "" H 10100 4700 60  0000 C CNN
F 3 "" H 10100 4700 60  0000 C CNN
	1    10100 4700
	1    0    0    -1  
$EndComp
Wire Wire Line
	10100 4600 10100 4700
Wire Wire Line
	10100 4300 10100 4200
Text Notes 10250 3950 0    60   ~ 0
DIGITAL SUPPLY
Text Notes 1000 2000 1    60   ~ 0
GL5528
Text GLabel 6100 1300 0    47   Input ~ 0
~ESP_ONLINE
Text GLabel 7100 5900 0    47   Input ~ 0
~ESP_ONLINE
$EndSCHEMATC
