(module C_Radial_D10_L20_P5 (layer F.Cu) (tedit 57E52EB7)
  (descr "Radial Electrolytic Capacitor Diameter 10mm x Length 20mm, Pitch 5mm")
  (tags "Electrolytic Capacitor")
  (fp_text reference REF** (at 2.5 -6.3) (layer F.SilkS)
    (effects (font (size 1 1) (thickness 0.15)))
  )
  (fp_text value C_Radial_D10_L20_P5 (at 2.5 6.3) (layer F.Fab)
    (effects (font (size 1 1) (thickness 0.15)))
  )
  (fp_line (start 2.575 -4.999) (end 2.575 4.999) (layer F.SilkS) (width 0.15))
  (fp_line (start 2.715 -4.995) (end 2.715 4.995) (layer F.SilkS) (width 0.15))
  (fp_line (start 2.855 -4.987) (end 2.855 4.987) (layer F.SilkS) (width 0.15))
  (fp_line (start 2.995 -4.975) (end 2.995 4.975) (layer F.SilkS) (width 0.15))
  (fp_line (start 3.135 -4.96) (end 3.135 4.96) (layer F.SilkS) (width 0.15))
  (fp_line (start 3.275 -4.94) (end 3.275 4.94) (layer F.SilkS) (width 0.15))
  (fp_line (start 3.415 -4.916) (end 3.415 4.916) (layer F.SilkS) (width 0.15))
  (fp_line (start 3.555 -4.887) (end 3.555 4.887) (layer F.SilkS) (width 0.15))
  (fp_line (start 3.695 -4.855) (end 3.695 4.855) (layer F.SilkS) (width 0.15))
  (fp_line (start 3.835 -4.818) (end 3.835 4.818) (layer F.SilkS) (width 0.15))
  (fp_line (start 3.975 -4.777) (end 3.975 4.777) (layer F.SilkS) (width 0.15))
  (fp_line (start 4.115 -4.732) (end 4.115 -0.466) (layer F.SilkS) (width 0.15))
  (fp_line (start 4.115 0.466) (end 4.115 4.732) (layer F.SilkS) (width 0.15))
  (fp_line (start 4.255 -4.682) (end 4.255 -0.667) (layer F.SilkS) (width 0.15))
  (fp_line (start 4.255 0.667) (end 4.255 4.682) (layer F.SilkS) (width 0.15))
  (fp_line (start 4.395 -4.627) (end 4.395 -0.796) (layer F.SilkS) (width 0.15))
  (fp_line (start 4.395 0.796) (end 4.395 4.627) (layer F.SilkS) (width 0.15))
  (fp_line (start 4.535 -4.567) (end 4.535 -0.885) (layer F.SilkS) (width 0.15))
  (fp_line (start 4.535 0.885) (end 4.535 4.567) (layer F.SilkS) (width 0.15))
  (fp_line (start 4.675 -4.502) (end 4.675 -0.946) (layer F.SilkS) (width 0.15))
  (fp_line (start 4.675 0.946) (end 4.675 4.502) (layer F.SilkS) (width 0.15))
  (fp_line (start 4.815 -4.432) (end 4.815 -0.983) (layer F.SilkS) (width 0.15))
  (fp_line (start 4.815 0.983) (end 4.815 4.432) (layer F.SilkS) (width 0.15))
  (fp_line (start 4.955 -4.356) (end 4.955 -0.999) (layer F.SilkS) (width 0.15))
  (fp_line (start 4.955 0.999) (end 4.955 4.356) (layer F.SilkS) (width 0.15))
  (fp_line (start 5.095 -4.274) (end 5.095 -0.995) (layer F.SilkS) (width 0.15))
  (fp_line (start 5.095 0.995) (end 5.095 4.274) (layer F.SilkS) (width 0.15))
  (fp_line (start 5.235 -4.186) (end 5.235 -0.972) (layer F.SilkS) (width 0.15))
  (fp_line (start 5.235 0.972) (end 5.235 4.186) (layer F.SilkS) (width 0.15))
  (fp_line (start 5.375 -4.091) (end 5.375 -0.927) (layer F.SilkS) (width 0.15))
  (fp_line (start 5.375 0.927) (end 5.375 4.091) (layer F.SilkS) (width 0.15))
  (fp_line (start 5.515 -3.989) (end 5.515 -0.857) (layer F.SilkS) (width 0.15))
  (fp_line (start 5.515 0.857) (end 5.515 3.989) (layer F.SilkS) (width 0.15))
  (fp_line (start 5.655 -3.879) (end 5.655 -0.756) (layer F.SilkS) (width 0.15))
  (fp_line (start 5.655 0.756) (end 5.655 3.879) (layer F.SilkS) (width 0.15))
  (fp_line (start 5.795 -3.761) (end 5.795 -0.607) (layer F.SilkS) (width 0.15))
  (fp_line (start 5.795 0.607) (end 5.795 3.761) (layer F.SilkS) (width 0.15))
  (fp_line (start 5.935 -3.633) (end 5.935 -0.355) (layer F.SilkS) (width 0.15))
  (fp_line (start 5.935 0.355) (end 5.935 3.633) (layer F.SilkS) (width 0.15))
  (fp_line (start 6.075 -3.496) (end 6.075 3.496) (layer F.SilkS) (width 0.15))
  (fp_line (start 6.215 -3.346) (end 6.215 3.346) (layer F.SilkS) (width 0.15))
  (fp_line (start 6.355 -3.184) (end 6.355 3.184) (layer F.SilkS) (width 0.15))
  (fp_line (start 6.495 -3.007) (end 6.495 3.007) (layer F.SilkS) (width 0.15))
  (fp_line (start 6.635 -2.811) (end 6.635 2.811) (layer F.SilkS) (width 0.15))
  (fp_line (start 6.775 -2.593) (end 6.775 2.593) (layer F.SilkS) (width 0.15))
  (fp_line (start 6.915 -2.347) (end 6.915 2.347) (layer F.SilkS) (width 0.15))
  (fp_line (start 7.055 -2.062) (end 7.055 2.062) (layer F.SilkS) (width 0.15))
  (fp_line (start 7.195 -1.72) (end 7.195 1.72) (layer F.SilkS) (width 0.15))
  (fp_line (start 7.335 -1.274) (end 7.335 1.274) (layer F.SilkS) (width 0.15))
  (fp_line (start 7.475 -0.499) (end 7.475 0.499) (layer F.SilkS) (width 0.15))
  (fp_circle (center 5 0) (end 5 -1) (layer F.SilkS) (width 0.15))
  (fp_circle (center 2.5 0) (end 2.5 -5.0375) (layer F.SilkS) (width 0.15))
  (fp_circle (center 2.5 0) (end 2.5 -5.3) (layer F.CrtYd) (width 0.05))
  (pad 1 thru_hole rect (at 0 0) (size 1.8 1.8) (drill 0.8) (layers *.Cu *.Mask F.SilkS))
  (pad 2 thru_hole circle (at 5 0) (size 1.8 1.8) (drill 0.8) (layers *.Cu *.Mask F.SilkS))
  (model Capacitors_ThroughHole.3dshapes/C_Radial_D10_L20_P5.wrl
    (at (xyz 0 0 0))
    (scale (xyz 1 1 1))
    (rotate (xyz 0 0 0))
  )
)
