(module D203B (layer F.Cu) (tedit 583BD579)
  (fp_text reference REF** (at 0 -6) (layer F.SilkS)
    (effects (font (size 1.5 1.5) (thickness 0.15)))
  )
  (fp_text value D203B (at 0 6) (layer F.Fab)
    (effects (font (size 1.5 1.5) (thickness 0.15)))
  )
  (fp_line (start -2 -1.5) (end 2 -1.5) (layer F.SilkS) (width 0.15))
  (fp_line (start 2 -1.5) (end 2 1.5) (layer F.SilkS) (width 0.15))
  (fp_line (start 2 1.5) (end -2 1.5) (layer F.SilkS) (width 0.15))
  (fp_line (start -2 1.5) (end -2 -1.5) (layer F.SilkS) (width 0.15))
  (fp_line (start 4.5 -0.25) (end 5 -0.25) (layer F.SilkS) (width 0.15))
  (fp_line (start 5 -0.25) (end 5 0.25) (layer F.SilkS) (width 0.15))
  (fp_line (start 5 0.25) (end 4.5 0.25) (layer F.SilkS) (width 0.15))
  (fp_circle (center 0 0) (end 4.5 0) (layer F.SilkS) (width 0.15))
  (fp_circle (center -8.75 11.25) (end -8 11.25) (layer F.SilkS) (width 0.15))
  (fp_circle (center 8.75 11.25) (end 9.5 11.25) (layer F.SilkS) (width 0.15))
  (fp_circle (center 8.75 -11.25) (end 9.5 -11.25) (layer F.SilkS) (width 0.15))
  (fp_circle (center -8.75 -11.25) (end -8 -11.25) (layer F.SilkS) (width 0.15))
  (fp_line (start 11 11) (end -11 11) (layer F.SilkS) (width 0.15))
  (fp_line (start -11 11) (end -11 -11) (layer F.SilkS) (width 0.15))
  (fp_line (start -11 -11) (end 11 -11) (layer F.SilkS) (width 0.15))
  (fp_line (start 11 -11) (end 11 11) (layer F.SilkS) (width 0.15))
  (fp_circle (center 0 0) (end 11.5 0) (layer F.SilkS) (width 0.15))
  (fp_line (start -11.5 11.5) (end -11.5 -11.5) (layer F.SilkS) (width 0.15))
  (fp_line (start 11.5 -11.5) (end 11.5 11.5) (layer F.SilkS) (width 0.15))
  (fp_line (start 11.5 11.5) (end -11.5 11.5) (layer F.SilkS) (width 0.15))
  (fp_line (start -11.5 -11.5) (end 11.5 -11.5) (layer F.SilkS) (width 0.15))
  (pad 1 thru_hole circle (at 1.7677 -1.7677) (size 1.7 1.7) (drill 0.5) (layers *.Cu *.Mask F.SilkS))
  (pad 2 thru_hole circle (at -1.7677 -1.7677) (size 1.7 1.7) (drill 0.5) (layers *.Cu *.Mask F.SilkS))
  (pad 3 thru_hole circle (at -1.7677 1.7677) (size 1.7 1.7) (drill 0.5) (layers *.Cu *.Mask F.SilkS))
  (pad 0 thru_hole circle (at 8.75 -11.25) (size 1.5 1.5) (drill 1.5) (layers *.Cu *.Mask F.SilkS))
  (pad 0 thru_hole circle (at -8.75 -11.25) (size 1.5 1.5) (drill 1.5) (layers *.Cu *.Mask F.SilkS))
  (pad 0 thru_hole circle (at -8.75 11.25) (size 1.5 1.5) (drill 1.5) (layers *.Cu *.Mask F.SilkS))
  (pad 0 thru_hole circle (at 8.75 11.25) (size 1.5 1.5) (drill 1.5) (layers *.Cu *.Mask F.SilkS))
)
