(module HC-SR501 (layer F.Cu) (tedit 56AEFEEE)
  (fp_text reference REF** (at 0 -8) (layer F.SilkS)
    (effects (font (size 1 1) (thickness 0.15)))
  )
  (fp_text value HC-SR501 (at 0 0) (layer F.Fab)
    (effects (font (size 1 1) (thickness 0.15)))
  )
  (fp_line (start -16 5) (end 16 5) (layer F.SilkS) (width 0.15))
  (fp_circle (center -14.5 0.5) (end -13.5 0.5) (layer F.SilkS) (width 0.15))
  (fp_circle (center 14.5 0.5) (end 15.5 0.5) (layer F.SilkS) (width 0.15))
  (fp_circle (center 0 0) (end 11 -0.5) (layer F.SilkS) (width 0.15))
  (fp_line (start -11.5 -11.5) (end 11.5 -11.5) (layer F.SilkS) (width 0.15))
  (fp_line (start 11.5 -11.5) (end 11.5 11.5) (layer F.SilkS) (width 0.15))
  (fp_line (start 11.5 11.5) (end -11.5 11.5) (layer F.SilkS) (width 0.15))
  (fp_line (start -11.5 11.5) (end -11.5 -11.5) (layer F.SilkS) (width 0.15))
  (fp_line (start -4 -11) (end 4 -11) (layer F.SilkS) (width 0.15))
  (fp_line (start 4 -11) (end 4 -9) (layer F.SilkS) (width 0.15))
  (fp_line (start 4 -9) (end -4 -9) (layer F.SilkS) (width 0.15))
  (fp_line (start -4 -9) (end -4 -11) (layer F.SilkS) (width 0.15))
  (fp_line (start -16 -12) (end 16 -12) (layer F.SilkS) (width 0.15))
  (fp_line (start 16 -12) (end 16 12) (layer F.SilkS) (width 0.15))
  (fp_line (start 16 12) (end -16 12) (layer F.SilkS) (width 0.15))
  (fp_line (start -16 12) (end -16 -12) (layer F.SilkS) (width 0.15))
  (pad 2 thru_hole circle (at 0 -10) (size 2 2) (drill 0.762) (layers *.Cu *.Mask F.SilkS))
  (pad 3 thru_hole circle (at -2.5 -10) (size 2 2) (drill 0.762) (layers *.Cu *.Mask F.SilkS))
  (pad 1 thru_hole rect (at 2.5 -10) (size 2 2) (drill 0.762) (layers *.Cu *.Mask F.SilkS))
)
