(module MICRO_SW (layer F.Cu) (tedit 55655D41)
  (fp_text reference REF** (at 0 0.5) (layer F.SilkS)
    (effects (font (size 1 1) (thickness 0.15)))
  )
  (fp_text value MICRO_SW (at 0 -0.5) (layer F.Fab)
    (effects (font (size 1 1) (thickness 0.15)))
  )
  (fp_line (start -2.54 -1.016) (end -2.032 -1.016) (layer F.SilkS) (width 0.15))
  (fp_line (start -2.032 -1.016) (end -1.016 -2.032) (layer F.SilkS) (width 0.15))
  (fp_line (start -1.016 -2.54) (end -1.016 -2.032) (layer F.SilkS) (width 0.15))
  (fp_line (start -2.54 1.016) (end -2.032 1.016) (layer F.SilkS) (width 0.15))
  (fp_line (start -2.032 1.016) (end -1.016 2.032) (layer F.SilkS) (width 0.15))
  (fp_line (start -1.016 2.54) (end -1.016 2.032) (layer F.SilkS) (width 0.15))
  (fp_line (start 1.016 2.54) (end 1.016 2.032) (layer F.SilkS) (width 0.15))
  (fp_line (start 1.016 2.032) (end 2.032 1.016) (layer F.SilkS) (width 0.15))
  (fp_line (start 2.54 1.016) (end 2.032 1.016) (layer F.SilkS) (width 0.15))
  (fp_line (start 2.54 -1.016) (end 2.032 -1.016) (layer F.SilkS) (width 0.15))
  (fp_line (start 2.032 -1.016) (end 1.016 -2.032) (layer F.SilkS) (width 0.15))
  (fp_line (start 1.016 -2.54) (end 1.016 -2.032) (layer F.SilkS) (width 0.15))
  (fp_line (start 2.54 -1.016) (end 2.54 1.016) (layer F.SilkS) (width 0.15))
  (fp_line (start -2.54 -1.016) (end -2.54 1.016) (layer F.SilkS) (width 0.15))
  (fp_line (start -1.016 2.54) (end 1.016 2.54) (layer F.SilkS) (width 0.15))
  (fp_line (start -1.016 -2.54) (end 1.016 -2.54) (layer F.SilkS) (width 0.15))
  (fp_circle (center 0 0) (end 1.778 0.127) (layer F.SilkS) (width 0.15))
  (pad 1 smd rect (at -2.794 -1.778) (size 2 1.4) (layers F.Cu F.Paste F.Mask))
  (pad 2 smd rect (at -2.794 1.778) (size 2 1.4) (layers F.Cu F.Paste F.Mask))
  (pad 1 smd rect (at 2.794 -1.778) (size 2 1.4) (layers F.Cu F.Paste F.Mask))
  (pad 2 smd rect (at 2.794 1.778) (size 2 1.4) (layers F.Cu F.Paste F.Mask))
)
