(module MountingHole_3mm (layer F.Cu) (tedit 582AD353)
  (descr "Mounting Hole 3mm, no annular")
  (tags "mounting hole 3mm no annular")
  (fp_text reference REF** (at 0 -4) (layer F.SilkS)
    (effects (font (size 1 1) (thickness 0.15)))
  )
  (fp_text value MountingHole_3mm (at 0 4) (layer F.Fab)
    (effects (font (size 1 1) (thickness 0.15)))
  )
  (fp_circle (center 0 0) (end 3 0) (layer Cmts.User) (width 0.15))
  (fp_circle (center 0 0) (end 3.25 0) (layer F.CrtYd) (width 0.05))
  (pad 1 thru_hole circle (at 0 0) (size 4.2 4.2) (drill 2.6) (layers *.Cu *.Mask F.SilkS))
)
